$MeshFormat
2.2 0 8
$EndMeshFormat
$PhysicalNames
11
2 7 "left"
2 8 "up"
2 9 "down"
2 10 "front"
2 11 "back"
3 1 "joch"
3 2 "anker"
3 3 "spule1_in"
3 4 "spule2_out"
3 5 "air"
3 6 "OptimierungY"
$EndPhysicalNames
$Nodes
264
1 0 0 0
2 0 0.025 0
3 0 0.04 0
4 0 0.041 0
5 0 0.046 0
6 0 0.056 0
7 0 0.076 0
8 0 0.08599999999999999 0
9 0 0.111 0
10 0.02 0 0
11 0.02 0.025 0
12 0.02 0.04 0
13 0.02 0.041 0
14 0.02 0.046 0
15 0.02 0.056 0
16 0.02 0.076 0
17 0.02 0.08599999999999999 0
18 0.02 0.111 0
19 0.04 0 0
20 0.04 0.025 0
21 0.04 0.04 0
22 0.04 0.041 0
23 0.04 0.046 0
24 0.04 0.056 0
25 0.04 0.076 0
26 0.04 0.08599999999999999 0
27 0.04 0.111 0
28 0.065 0 0
29 0.065 0.025 0
30 0.065 0.04 0
31 0.065 0.041 0
32 0.065 0.046 0
33 0.065 0.056 0
34 0.065 0.076 0
35 0.065 0.08599999999999999 0
36 0.065 0.111 0
37 0 0 0.001
38 0.02 0 0.001
39 0.02 0.025 0.001
40 0 0.025 0.001
41 0.02 0.04 0.001
42 0 0.04 0.001
43 0.02 0.041 0.001
44 0 0.041 0.001
45 0.02 0.046 0.001
46 0 0.046 0.001
47 0.02 0.056 0.001
48 0 0.056 0.001
49 0.02 0.076 0.001
50 0 0.076 0.001
51 0.02 0.08599999999999999 0.001
52 0 0.08599999999999999 0.001
53 0.02 0.111 0.001
54 0 0.111 0.001
55 0.04 0 0.001
56 0.04 0.025 0.001
57 0.04 0.04 0.001
58 0.04 0.041 0.001
59 0.04 0.046 0.001
60 0.04 0.056 0.001
61 0.04 0.076 0.001
62 0.04 0.08599999999999999 0.001
63 0.04 0.111 0.001
64 0.065 0 0.001
65 0.065 0.025 0.001
66 0.065 0.04 0.001
67 0.065 0.041 0.001
68 0.065 0.046 0.001
69 0.065 0.056 0.001
70 0.065 0.076 0.001
71 0.065 0.08599999999999999 0.001
72 0.065 0.111 0.001
73 0 0.01249999999996711 0
74 0 0.02799999999999349 0
75 0 0.03099999999998562 0
76 0 0.03399999999998183 0
77 0 0.03699999999999214 0
78 0 0.04049999999998916 0
79 0 0.05099999999999051 0
80 0 0.05999999999998944 0
81 0 0.06399999999997778 0
82 0 0.06799999999997344 0
83 0 0.07199999999998644 0
84 0 0.08099999999998644 0
85 0 0.09849999999997829 0
86 0.02 0.01249999999996711 0
87 0.02 0.02799999999999349 0
88 0.02 0.03099999999998562 0
89 0.02 0.03399999999998183 0
90 0.02 0.03699999999999214 0
91 0.02 0.04049999999998916 0
92 0.02 0.05099999999999051 0
93 0.02 0.05999999999998944 0
94 0.02 0.06399999999997778 0
95 0.02 0.06799999999997344 0
96 0.02 0.07199999999998644 0
97 0.02 0.08099999999998644 0
98 0.02 0.09849999999997829 0
99 0.04 0.01249999999996711 0
100 0.04 0.02799999999999349 0
101 0.04 0.03099999999998562 0
102 0.04 0.03399999999998183 0
103 0.04 0.03699999999999214 0
104 0.04 0.04049999999998916 0
105 0.04 0.05099999999999051 0
106 0.04 0.05999999999998944 0
107 0.04 0.06399999999997778 0
108 0.04 0.06799999999997344 0
109 0.04 0.07199999999998644 0
110 0.04 0.08099999999998644 0
111 0.04 0.09849999999997829 0
112 0.065 0.01249999999996711 0
113 0.065 0.02799999999999349 0
114 0.065 0.03099999999998562 0
115 0.065 0.03399999999998183 0
116 0.065 0.03699999999999214 0
117 0.065 0.04049999999998916 0
118 0.065 0.05099999999999051 0
119 0.065 0.05999999999998944 0
120 0.065 0.06399999999997778 0
121 0.065 0.06799999999997344 0
122 0.065 0.07199999999998644 0
123 0.065 0.08099999999998644 0
124 0.065 0.09849999999997829 0
125 0.009999999999973934 0 0
126 0.0524999999999661 0 0
127 0.009999999999973934 0.025 0
128 0.0524999999999661 0.025 0
129 0.009999999999973934 0.04 0
130 0.0524999999999661 0.04 0
131 0.009999999999973934 0.041 0
132 0.0524999999999661 0.041 0
133 0.009999999999973934 0.046 0
134 0.0524999999999661 0.046 0
135 0.009999999999973934 0.056 0
136 0.0524999999999661 0.056 0
137 0.009999999999973934 0.076 0
138 0.0524999999999661 0.076 0
139 0.009999999999973934 0.08599999999999999 0
140 0.0524999999999661 0.08599999999999999 0
141 0.009999999999973934 0.111 0
142 0.0524999999999661 0.111 0
143 0.009999999999973934 0 0.001
144 0.02 0.01249999999996711 0.001
145 0.009999999999973934 0.025 0.001
146 0 0.01249999999996711 0.001
147 0.02 0.02799999999999349 0.001
148 0.02 0.03099999999998562 0.001
149 0.02 0.03399999999998183 0.001
150 0.02 0.03699999999999214 0.001
151 0.009999999999973934 0.04 0.001
152 0 0.03699999999999214 0.001
153 0 0.03399999999998183 0.001
154 0 0.03099999999998562 0.001
155 0 0.02799999999999349 0.001
156 0.02 0.04049999999998916 0.001
157 0.009999999999973934 0.041 0.001
158 0 0.04049999999998916 0.001
159 0.009999999999973934 0.046 0.001
160 0.02 0.05099999999999051 0.001
161 0.009999999999973934 0.056 0.001
162 0 0.05099999999999051 0.001
163 0.02 0.05999999999998944 0.001
164 0.02 0.06399999999997778 0.001
165 0.02 0.06799999999997344 0.001
166 0.02 0.07199999999998644 0.001
167 0.009999999999973934 0.076 0.001
168 0 0.07199999999998644 0.001
169 0 0.06799999999997344 0.001
170 0 0.06399999999997778 0.001
171 0 0.05999999999998944 0.001
172 0.02 0.08099999999998644 0.001
173 0.009999999999973934 0.08599999999999999 0.001
174 0 0.08099999999998644 0.001
175 0.02 0.09849999999997829 0.001
176 0.009999999999973934 0.111 0.001
177 0 0.09849999999997829 0.001
178 0.04 0.01249999999996711 0.001
179 0.04 0.02799999999999349 0.001
180 0.04 0.03099999999998562 0.001
181 0.04 0.03399999999998183 0.001
182 0.04 0.03699999999999214 0.001
183 0.04 0.04049999999998916 0.001
184 0.04 0.05099999999999051 0.001
185 0.04 0.05999999999998944 0.001
186 0.04 0.06399999999997778 0.001
187 0.04 0.06799999999997344 0.001
188 0.04 0.07199999999998644 0.001
189 0.04 0.08099999999998644 0.001
190 0.04 0.09849999999997829 0.001
191 0.0524999999999661 0 0.001
192 0.065 0.01249999999996711 0.001
193 0.0524999999999661 0.025 0.001
194 0.065 0.02799999999999349 0.001
195 0.065 0.03099999999998562 0.001
196 0.065 0.03399999999998183 0.001
197 0.065 0.03699999999999214 0.001
198 0.0524999999999661 0.04 0.001
199 0.065 0.04049999999998916 0.001
200 0.0524999999999661 0.041 0.001
201 0.0524999999999661 0.046 0.001
202 0.065 0.05099999999999051 0.001
203 0.0524999999999661 0.056 0.001
204 0.065 0.05999999999998944 0.001
205 0.065 0.06399999999997778 0.001
206 0.065 0.06799999999997344 0.001
207 0.065 0.07199999999998644 0.001
208 0.0524999999999661 0.076 0.001
209 0.065 0.08099999999998644 0.001
210 0.0524999999999661 0.08599999999999999 0.001
211 0.065 0.09849999999997829 0.001
212 0.0524999999999661 0.111 0.001
213 0.009999999999973933 0.0124999999999671 0
214 0.009999999999973934 0.0279999999999935 0
215 0.009999999999973933 0.03099999999998562 0
216 0.009999999999973934 0.03399999999998183 0
217 0.009999999999973934 0.03699999999999214 0
218 0.009999999999973934 0.04049999999998916 0
219 0.009999999999973934 0.05099999999999051 0
220 0.009999999999973931 0.05999999999998944 0
221 0.009999999999973934 0.06399999999997778 0
222 0.009999999999973933 0.06799999999997344 0
223 0.009999999999973933 0.07199999999998644 0
224 0.009999999999973934 0.08099999999998644 0
225 0.009999999999973934 0.09849999999997829 0
226 0.0524999999999661 0.01249999999996711 0
227 0.05249999999996609 0.0279999999999935 0
228 0.05249999999996609 0.03099999999998562 0
229 0.0524999999999661 0.03399999999998184 0
230 0.0524999999999661 0.03699999999999214 0
231 0.0524999999999661 0.04049999999998916 0
232 0.0524999999999661 0.0509999999999905 0
233 0.05249999999996612 0.05999999999998944 0
234 0.0524999999999661 0.06399999999997776 0
235 0.0524999999999661 0.06799999999997343 0
236 0.0524999999999661 0.07199999999998644 0
237 0.05249999999996611 0.08099999999998644 0
238 0.05249999999996609 0.0984999999999783 0
239 0.009999999999973933 0.0124999999999671 0.001
240 0.009999999999973934 0.0279999999999935 0.001
241 0.009999999999973933 0.03099999999998562 0.001
242 0.009999999999973934 0.03399999999998183 0.001
243 0.009999999999973934 0.03699999999999214 0.001
244 0.009999999999973934 0.04049999999998916 0.001
245 0.009999999999973934 0.05099999999999051 0.001
246 0.009999999999973931 0.05999999999998944 0.001
247 0.009999999999973934 0.06399999999997778 0.001
248 0.009999999999973933 0.06799999999997344 0.001
249 0.009999999999973933 0.07199999999998644 0.001
250 0.009999999999973934 0.08099999999998644 0.001
251 0.009999999999973934 0.09849999999997829 0.001
252 0.0524999999999661 0.01249999999996711 0.001
253 0.05249999999996609 0.0279999999999935 0.001
254 0.05249999999996609 0.03099999999998562 0.001
255 0.0524999999999661 0.03399999999998184 0.001
256 0.0524999999999661 0.03699999999999214 0.001
257 0.0524999999999661 0.04049999999998916 0.001
258 0.0524999999999661 0.0509999999999905 0.001
259 0.05249999999996612 0.05999999999998944 0.001
260 0.0524999999999661 0.06399999999997776 0.001
261 0.0524999999999661 0.06799999999997343 0.001
262 0.0524999999999661 0.07199999999998644 0.001
263 0.05249999999996611 0.08099999999998644 0.001
264 0.05249999999996609 0.0984999999999783 0.001
$EndNodes
$Elements
344
1 3 2 11 60 1 125 213 73
2 3 2 11 60 73 213 127 2
3 3 2 11 60 125 10 86 213
4 3 2 11 60 213 86 11 127
5 3 2 11 61 2 127 214 74
6 3 2 11 61 74 214 215 75
7 3 2 11 61 75 215 216 76
8 3 2 11 61 76 216 217 77
9 3 2 11 61 77 217 129 3
10 3 2 11 61 127 11 87 214
11 3 2 11 61 214 87 88 215
12 3 2 11 61 215 88 89 216
13 3 2 11 61 216 89 90 217
14 3 2 11 61 217 90 12 129
15 3 2 11 62 3 129 218 78
16 3 2 11 62 78 218 131 4
17 3 2 11 62 129 12 91 218
18 3 2 11 62 218 91 13 131
19 3 2 11 63 4 131 133 5
20 3 2 11 63 131 13 14 133
21 3 2 11 64 5 133 219 79
22 3 2 11 64 79 219 135 6
23 3 2 11 64 133 14 92 219
24 3 2 11 64 219 92 15 135
25 3 2 11 65 6 135 220 80
26 3 2 11 65 80 220 221 81
27 3 2 11 65 81 221 222 82
28 3 2 11 65 82 222 223 83
29 3 2 11 65 83 223 137 7
30 3 2 11 65 135 15 93 220
31 3 2 11 65 220 93 94 221
32 3 2 11 65 221 94 95 222
33 3 2 11 65 222 95 96 223
34 3 2 11 65 223 96 16 137
35 3 2 11 66 7 137 224 84
36 3 2 11 66 84 224 139 8
37 3 2 11 66 137 16 97 224
38 3 2 11 66 224 97 17 139
39 3 2 11 67 8 139 225 85
40 3 2 11 67 85 225 141 9
41 3 2 11 67 139 17 98 225
42 3 2 11 67 225 98 18 141
43 3 2 11 68 10 19 99 86
44 3 2 11 68 86 99 20 11
45 3 2 11 69 11 20 100 87
46 3 2 11 69 87 100 101 88
47 3 2 11 69 88 101 102 89
48 3 2 11 69 89 102 103 90
49 3 2 11 69 90 103 21 12
50 3 2 11 70 12 21 104 91
51 3 2 11 70 91 104 22 13
52 3 2 11 71 13 22 23 14
53 3 2 11 72 14 23 105 92
54 3 2 11 72 92 105 24 15
55 3 2 11 73 15 24 106 93
56 3 2 11 73 93 106 107 94
57 3 2 11 73 94 107 108 95
58 3 2 11 73 95 108 109 96
59 3 2 11 73 96 109 25 16
60 3 2 11 74 16 25 110 97
61 3 2 11 74 97 110 26 17
62 3 2 11 75 17 26 111 98
63 3 2 11 75 98 111 27 18
64 3 2 11 76 19 126 226 99
65 3 2 11 76 99 226 128 20
66 3 2 11 76 126 28 112 226
67 3 2 11 76 226 112 29 128
68 3 2 11 77 20 128 227 100
69 3 2 11 77 100 227 228 101
70 3 2 11 77 101 228 229 102
71 3 2 11 77 102 229 230 103
72 3 2 11 77 103 230 130 21
73 3 2 11 77 128 29 113 227
74 3 2 11 77 227 113 114 228
75 3 2 11 77 228 114 115 229
76 3 2 11 77 229 115 116 230
77 3 2 11 77 230 116 30 130
78 3 2 11 78 21 130 231 104
79 3 2 11 78 104 231 132 22
80 3 2 11 78 130 30 117 231
81 3 2 11 78 231 117 31 132
82 3 2 11 79 22 132 134 23
83 3 2 11 79 132 31 32 134
84 3 2 11 80 23 134 232 105
85 3 2 11 80 105 232 136 24
86 3 2 11 80 134 32 118 232
87 3 2 11 80 232 118 33 136
88 3 2 11 81 24 136 233 106
89 3 2 11 81 106 233 234 107
90 3 2 11 81 107 234 235 108
91 3 2 11 81 108 235 236 109
92 3 2 11 81 109 236 138 25
93 3 2 11 81 136 33 119 233
94 3 2 11 81 233 119 120 234
95 3 2 11 81 234 120 121 235
96 3 2 11 81 235 121 122 236
97 3 2 11 81 236 122 34 138
98 3 2 11 82 25 138 237 110
99 3 2 11 82 110 237 140 26
100 3 2 11 82 138 34 123 237
101 3 2 11 82 237 123 35 140
102 3 2 11 83 26 140 238 111
103 3 2 11 83 111 238 142 27
104 3 2 11 83 140 35 124 238
105 3 2 11 83 238 124 36 142
106 3 2 9 92 1 125 143 37
107 3 2 9 92 125 10 38 143
108 3 2 7 104 1 37 146 73
109 3 2 7 104 73 146 40 2
110 3 2 10 105 37 143 239 146
111 3 2 10 105 146 239 145 40
112 3 2 10 105 143 38 144 239
113 3 2 10 105 239 144 39 145
114 3 2 7 126 2 40 155 74
115 3 2 7 126 74 155 154 75
116 3 2 7 126 75 154 153 76
117 3 2 7 126 76 153 152 77
118 3 2 7 126 77 152 42 3
119 3 2 10 127 40 145 240 155
120 3 2 10 127 155 240 241 154
121 3 2 10 127 154 241 242 153
122 3 2 10 127 153 242 243 152
123 3 2 10 127 152 243 151 42
124 3 2 10 127 145 39 147 240
125 3 2 10 127 240 147 148 241
126 3 2 10 127 241 148 149 242
127 3 2 10 127 242 149 150 243
128 3 2 10 127 243 150 41 151
129 3 2 10 149 42 151 244 158
130 3 2 10 149 158 244 157 44
131 3 2 10 149 151 41 156 244
132 3 2 10 149 244 156 43 157
133 3 2 7 170 4 44 46 5
134 3 2 10 171 44 157 159 46
135 3 2 10 171 157 43 45 159
136 3 2 7 192 5 46 162 79
137 3 2 7 192 79 162 48 6
138 3 2 10 193 46 159 245 162
139 3 2 10 193 162 245 161 48
140 3 2 10 193 159 45 160 245
141 3 2 10 193 245 160 47 161
142 3 2 7 214 6 48 171 80
143 3 2 7 214 80 171 170 81
144 3 2 7 214 81 170 169 82
145 3 2 7 214 82 169 168 83
146 3 2 7 214 83 168 50 7
147 3 2 10 215 48 161 246 171
148 3 2 10 215 171 246 247 170
149 3 2 10 215 170 247 248 169
150 3 2 10 215 169 248 249 168
151 3 2 10 215 168 249 167 50
152 3 2 10 215 161 47 163 246
153 3 2 10 215 246 163 164 247
154 3 2 10 215 247 164 165 248
155 3 2 10 215 248 165 166 249
156 3 2 10 215 249 166 49 167
157 3 2 7 236 7 50 174 84
158 3 2 7 236 84 174 52 8
159 3 2 10 237 50 167 250 174
160 3 2 10 237 174 250 173 52
161 3 2 10 237 167 49 172 250
162 3 2 10 237 250 172 51 173
163 3 2 8 254 9 54 176 141
164 3 2 8 254 141 176 53 18
165 3 2 7 258 8 52 177 85
166 3 2 7 258 85 177 54 9
167 3 2 10 259 52 173 251 177
168 3 2 10 259 177 251 176 54
169 3 2 10 259 173 51 175 251
170 3 2 10 259 251 175 53 176
171 3 2 9 268 10 19 55 38
172 3 2 10 281 38 55 178 144
173 3 2 10 281 144 178 56 39
174 3 2 10 303 39 56 179 147
175 3 2 10 303 147 179 180 148
176 3 2 10 303 148 180 181 149
177 3 2 10 303 149 181 182 150
178 3 2 10 303 150 182 57 41
179 3 2 10 325 41 57 183 156
180 3 2 10 325 156 183 58 43
181 3 2 10 347 43 58 59 45
182 3 2 10 369 45 59 184 160
183 3 2 10 369 160 184 60 47
184 3 2 10 391 47 60 185 163
185 3 2 10 391 163 185 186 164
186 3 2 10 391 164 186 187 165
187 3 2 10 391 165 187 188 166
188 3 2 10 391 166 188 61 49
189 3 2 10 413 49 61 189 172
190 3 2 10 413 172 189 62 51
191 3 2 8 430 18 53 63 27
192 3 2 10 435 51 62 190 175
193 3 2 10 435 175 190 63 53
194 3 2 9 444 19 126 191 55
195 3 2 9 444 126 28 64 191
196 3 2 10 457 55 191 252 178
197 3 2 10 457 178 252 193 56
198 3 2 10 457 191 64 192 252
199 3 2 10 457 252 192 65 193
200 3 2 10 479 56 193 253 179
201 3 2 10 479 179 253 254 180
202 3 2 10 479 180 254 255 181
203 3 2 10 479 181 255 256 182
204 3 2 10 479 182 256 198 57
205 3 2 10 479 193 65 194 253
206 3 2 10 479 253 194 195 254
207 3 2 10 479 254 195 196 255
208 3 2 10 479 255 196 197 256
209 3 2 10 479 256 197 66 198
210 3 2 10 501 57 198 257 183
211 3 2 10 501 183 257 200 58
212 3 2 10 501 198 66 199 257
213 3 2 10 501 257 199 67 200
214 3 2 10 523 58 200 201 59
215 3 2 10 523 200 67 68 201
216 3 2 10 545 59 201 258 184
217 3 2 10 545 184 258 203 60
218 3 2 10 545 201 68 202 258
219 3 2 10 545 258 202 69 203
220 3 2 10 567 60 203 259 185
221 3 2 10 567 185 259 260 186
222 3 2 10 567 186 260 261 187
223 3 2 10 567 187 261 262 188
224 3 2 10 567 188 262 208 61
225 3 2 10 567 203 69 204 259
226 3 2 10 567 259 204 205 260
227 3 2 10 567 260 205 206 261
228 3 2 10 567 261 206 207 262
229 3 2 10 567 262 207 70 208
230 3 2 10 589 61 208 263 189
231 3 2 10 589 189 263 210 62
232 3 2 10 589 208 70 209 263
233 3 2 10 589 263 209 71 210
234 3 2 8 606 27 63 212 142
235 3 2 8 606 142 212 72 36
236 3 2 10 611 62 210 264 190
237 3 2 10 611 190 264 212 63
238 3 2 10 611 210 71 211 264
239 3 2 10 611 264 211 72 212
240 5 2 5 1 1 125 213 73 37 143 239 146
241 5 2 5 1 73 213 127 2 146 239 145 40
242 5 2 5 1 125 10 86 213 143 38 144 239
243 5 2 5 1 213 86 11 127 239 144 39 145
244 5 2 5 2 2 127 214 74 40 145 240 155
245 5 2 5 2 74 214 215 75 155 240 241 154
246 5 2 5 2 75 215 216 76 154 241 242 153
247 5 2 5 2 76 216 217 77 153 242 243 152
248 5 2 5 2 77 217 129 3 152 243 151 42
249 5 2 5 2 127 11 87 214 145 39 147 240
250 5 2 5 2 214 87 88 215 240 147 148 241
251 5 2 5 2 215 88 89 216 241 148 149 242
252 5 2 5 2 216 89 90 217 242 149 150 243
253 5 2 5 2 217 90 12 129 243 150 41 151
254 5 2 5 3 3 129 218 78 42 151 244 158
255 5 2 5 3 78 218 131 4 158 244 157 44
256 5 2 5 3 129 12 91 218 151 41 156 244
257 5 2 5 3 218 91 13 131 244 156 43 157
258 5 2 5 4 4 131 133 5 44 157 159 46
259 5 2 5 4 131 13 14 133 157 43 45 159
260 5 2 5 5 5 133 219 79 46 159 245 162
261 5 2 5 5 79 219 135 6 162 245 161 48
262 5 2 5 5 133 14 92 219 159 45 160 245
263 5 2 5 5 219 92 15 135 245 160 47 161
264 5 2 5 6 6 135 220 80 48 161 246 171
265 5 2 5 6 80 220 221 81 171 246 247 170
266 5 2 5 6 81 221 222 82 170 247 248 169
267 5 2 5 6 82 222 223 83 169 248 249 168
268 5 2 5 6 83 223 137 7 168 249 167 50
269 5 2 5 6 135 15 93 220 161 47 163 246
270 5 2 5 6 220 93 94 221 246 163 164 247
271 5 2 5 6 221 94 95 222 247 164 165 248
272 5 2 5 6 222 95 96 223 248 165 166 249
273 5 2 5 6 223 96 16 137 249 166 49 167
274 5 2 5 7 7 137 224 84 50 167 250 174
275 5 2 5 7 84 224 139 8 174 250 173 52
276 5 2 5 7 137 16 97 224 167 49 172 250
277 5 2 5 7 224 97 17 139 250 172 51 173
278 5 2 5 8 8 139 225 85 52 173 251 177
279 5 2 5 8 85 225 141 9 177 251 176 54
280 5 2 5 8 139 17 98 225 173 51 175 251
281 5 2 5 8 225 98 18 141 251 175 53 176
282 5 2 5 9 10 19 99 86 38 55 178 144
283 5 2 5 9 86 99 20 11 144 178 56 39
284 5 2 2 10 11 20 100 87 39 56 179 147
285 5 2 2 10 87 100 101 88 147 179 180 148
286 5 2 2 10 88 101 102 89 148 180 181 149
287 5 2 2 10 89 102 103 90 149 181 182 150
288 5 2 2 10 90 103 21 12 150 182 57 41
289 5 2 5 11 12 21 104 91 41 57 183 156
290 5 2 5 11 91 104 22 13 156 183 58 43
291 5 2 6 12 13 22 23 14 43 58 59 45
292 5 2 1 13 14 23 105 92 45 59 184 160
293 5 2 1 13 92 105 24 15 160 184 60 47
294 5 2 1 14 15 24 106 93 47 60 185 163
295 5 2 1 14 93 106 107 94 163 185 186 164
296 5 2 1 14 94 107 108 95 164 186 187 165
297 5 2 1 14 95 108 109 96 165 187 188 166
298 5 2 1 14 96 109 25 16 166 188 61 49
299 5 2 5 15 16 25 110 97 49 61 189 172
300 5 2 5 15 97 110 26 17 172 189 62 51
301 5 2 5 16 17 26 111 98 51 62 190 175
302 5 2 5 16 98 111 27 18 175 190 63 53
303 5 2 5 17 19 126 226 99 55 191 252 178
304 5 2 5 17 99 226 128 20 178 252 193 56
305 5 2 5 17 126 28 112 226 191 64 192 252
306 5 2 5 17 226 112 29 128 252 192 65 193
307 5 2 2 18 20 128 227 100 56 193 253 179
308 5 2 2 18 100 227 228 101 179 253 254 180
309 5 2 2 18 101 228 229 102 180 254 255 181
310 5 2 2 18 102 229 230 103 181 255 256 182
311 5 2 2 18 103 230 130 21 182 256 198 57
312 5 2 2 18 128 29 113 227 193 65 194 253
313 5 2 2 18 227 113 114 228 253 194 195 254
314 5 2 2 18 228 114 115 229 254 195 196 255
315 5 2 2 18 229 115 116 230 255 196 197 256
316 5 2 2 18 230 116 30 130 256 197 66 198
317 5 2 5 19 21 130 231 104 57 198 257 183
318 5 2 5 19 104 231 132 22 183 257 200 58
319 5 2 5 19 130 30 117 231 198 66 199 257
320 5 2 5 19 231 117 31 132 257 199 67 200
321 5 2 5 20 22 132 134 23 58 200 201 59
322 5 2 5 20 132 31 32 134 200 67 68 201
323 5 2 4 21 23 134 232 105 59 201 258 184
324 5 2 4 21 105 232 136 24 184 258 203 60
325 5 2 4 21 134 32 118 232 201 68 202 258
326 5 2 4 21 232 118 33 136 258 202 69 203
327 5 2 1 22 24 136 233 106 60 203 259 185
328 5 2 1 22 106 233 234 107 185 259 260 186
329 5 2 1 22 107 234 235 108 186 260 261 187
330 5 2 1 22 108 235 236 109 187 261 262 188
331 5 2 1 22 109 236 138 25 188 262 208 61
332 5 2 1 22 136 33 119 233 203 69 204 259
333 5 2 1 22 233 119 120 234 259 204 205 260
334 5 2 1 22 234 120 121 235 260 205 206 261
335 5 2 1 22 235 121 122 236 261 206 207 262
336 5 2 1 22 236 122 34 138 262 207 70 208
337 5 2 3 23 25 138 237 110 61 208 263 189
338 5 2 3 23 110 237 140 26 189 263 210 62
339 5 2 3 23 138 34 123 237 208 70 209 263
340 5 2 3 23 237 123 35 140 263 209 71 210
341 5 2 5 24 26 140 238 111 62 210 264 190
342 5 2 5 24 111 238 142 27 190 264 212 63
343 5 2 5 24 140 35 124 238 210 71 211 264
344 5 2 5 24 238 124 36 142 264 211 72 212
$EndElements
