#1:iter	2:compliance	3:duration	4:volume	5:sub_prb_itr	6:dual_eval	7:neg_asym_min	8:neg_asym_max	9:pos_asym_min	10:pos_asym_max	11:lambda_volume
0 	1366.03 	0.193 	0.2 	9 	9 	0.001 	0.001 	1 	1 	1000.21
1 	18.3093 	0.008 	0.70356 	9 	18 	0.001 	0.001 	1 	1 	132.504
2 	36.877 	0.007 	0.499484 	8 	26 	0.001 	0.001 	1 	1 	192.662
3 	30.8537 	0.007 	0.499921 	9 	35 	0.001 	0.001 	1 	1 	147.663
4 	27.0344 	0.008 	0.499942 	10 	45 	0.001 	0.001 	1 	1 	110.18
5 	25.0234 	0.007 	0.499967 	10 	55 	0.001 	0.001 	1 	1 	93.7201
6 	24.0378 	0.007 	0.499982 	10 	65 	0.001 	0.001 	1 	1 	88.6716
7 	23.455 	0.009 	0.49999 	10 	75 	0.001 	0.001 	1 	1 	85.8719
8 	23.087 	0.007 	0.499994 	10 	85 	0.001 	0.001 	1 	1 	84.4609
9 	22.8318 	0.009 	0.499996 	10 	95 	0.001 	0.001 	1 	1 	83.134
10 	22.6478 	0.009 	0.499997 	10 	105 	0.001 	0.001 	1 	1 	81.8415
11 	22.5076 	0.009 	0.499998 	10 	115 	0.001 	0.001 	1 	1 	80.6862
12 	22.3997 	0.008 	0.499998 	10 	125 	0.001 	0.001 	1 	1 	79.9397
13 	22.3145 	0.007 	0.499998 	10 	135 	0.001 	0.001 	1 	1 	79.4056
14 	22.2442 	0.008 	0.499999 	10 	145 	0.001 	0.001 	1 	1 	79.0027
15 	22.1851 	0.009 	0.499999 	10 	155 	0.001 	0.001 	1 	1 	78.0823
16 	22.1379 	0.009 	0.499999 	10 	165 	0.001 	0.001 	1 	1 	77.6486
17 	22.099 	0.008 	0.499999 	10 	175 	0.001 	0.001 	1 	1 	77.0299
18 	22.0661 	0.009 	0.499999 	10 	185 	0.001 	0.001 	1 	1 	76.6509
19 	22.0376 	0.01 	0.499999 	10 	195 	0.001 	0.001 	1 	1 	76.0862
20 	22.0132 	0.008 	0.499999 	10 	205 	0.001 	0.001 	1 	1 	75.6603
21 	21.9916 	0.01 	0.5 	10 	215 	0.001 	0.001 	1 	1 	75.2756
22 	21.9721 	0.008 	0.5 	10 	225 	0.001 	0.001 	1 	1 	75.0246
23 	21.9545 	0.011 	0.5 	10 	235 	0.001 	0.001 	1 	1 	74.4409
24 	21.9397 	0.008 	0.5 	10 	245 	0.001 	0.001 	1 	1 	74.1049
25 	21.9279 	0.009 	0.5 	10 	255 	0.001 	0.001 	1 	1 	74.1884
26 	21.9179 	0.008 	0.5 	10 	265 	0.001 	0.001 	1 	1 	73.8904
27 	21.9096 	0.009 	0.5 	10 	275 	0.001 	0.001 	1 	1 	73.8611
28 	21.9024 	0.011 	0.5 	10 	285 	0.001 	0.001 	1 	1 	73.8542
