
0                         NaN
2.0000000000000226E-4     NaN
3.999999999999941E-4      NaN
5.999999999999998E-4      NaN
8.000000000000021E-4      NaN
0.0010000000000000009     NaN
0.0012000000000000031     NaN
0.0013999999999999985     NaN
0.0016000000000000007     NaN
0.0018000000000000065     NaN
0.0020000000000000018     NaN
0.002200000000000004      NaN
0.002399999999999996      NaN
0.0025999999999999947     NaN
0.0028000000000000004     NaN
0.0029999999999999957     NaN
0.0031999999999999945     NaN
0.00339999999999999       NaN
0.0035999999999999886     NaN
0.0037999999999999944     NaN
0.003999999999999993      NaN
0.004199999999999995      NaN
0.004399999999999991      NaN
0.0045999999999999895     NaN
0.004799999999999995      NaN
0.004999999999999994      NaN
0.005199999999999996      NaN
0.005399999999999988      NaN
0.005599999999999987      NaN
0.005799999999999989      NaN
0.005999999999999988      NaN
0.00619999999999999       NaN
0.006399999999999982      NaN
0.006599999999999981      NaN
0.00679999999999999       NaN
0.006999999999999989      NaN
0.007199999999999991      NaN
0.007399999999999983      NaN
0.007599999999999982      NaN
0.007799999999999984      NaN
0.007999999999999983      NaN
0.008199999999999989      NaN
0.00839999999999998       NaN
0.00859999999999998       NaN
0.008799999999999985      NaN
0.00899999999999998       NaN
0.00919999999999999       NaN
0.009399999999999988      NaN
0.00959999999999999       NaN
0.0098                    NaN
0.009999999999999998      NaN
0.009999999999999998      5.495609303602072E-6
0.010200000000000004      5.4022127174187155E-6
0.010399999999999993      5.308816131235359E-6
0.010599999999999995      5.215419545052003E-6
0.010800000000000004      5.122022958868647E-6
0.011000000000000003      5.02862637268529E-6
0.011200000000000002      4.913869271850644E-6
0.011399999999999997      4.799112171015998E-6
0.011599999999999996      4.684355070181351E-6
0.011800000000000001      4.569597969346705E-6
0.012                     4.454840868512058E-6
0.012200000000000006      4.324192931731772E-6
0.012399999999999998      4.193544994951485E-6
0.012599999999999997      4.062897058171199E-6
0.01280000000000001       3.932249121390912E-6
0.013000000000000001      3.8016011846106254E-6
0.013200000000000007      3.660574670684747E-6
0.013399999999999999      3.5195481567588684E-6
0.013599999999999998      3.3785216428329894E-6
0.01380000000000001       3.237495128907111E-6
0.014000000000000002      3.0964686149812324E-6
0.0142                    2.9502507279567098E-6
0.0144                    2.804032840932187E-6
0.014599999999999998      2.657814953907664E-6
0.014800000000000011      2.5115970668831415E-6
0.015000000000000003      2.365379179858619E-6
0.015200000000000016      2.218818157113824E-6
0.015399999999999994      2.0722571343690287E-6
0.015599999999999992      1.9256961116242337E-6
0.015800000000000012      1.7791350888794386E-6
0.016000000000000004      1.6325740661346435E-6
0.01620000000000001       1.4900516407219455E-6
0.0164                    1.347529215309247E-6
0.0166                    1.2050067898965489E-6
0.016800000000000006      1.0624843644838509E-6
0.017000000000000005      9.199619390711527E-7
0.017200000000000003      7.853375069681211E-7
0.017400000000000002      6.507130748650894E-7
0.0176                    5.160886427620578E-7
0.017800000000000014      3.8146421065902615E-7
0.018000000000000006      2.4683977855599454E-7
0.01820000000000001       1.2337113138014007E-7
0.018400000000000003      -9.751579571444339E-11
0.018600000000000002      -1.235661629715689E-7
0.018800000000000008      -2.470348101474234E-7
0.019000000000000006      -3.705034573232779E-7
0.019200000000000012      -4.801917793100313E-7
0.019399999999999997      -5.898801012967847E-7
0.019599999999999996      -6.99568423283538E-7
0.019800000000000016      -8.092567452702913E-7
0.020000000000000007      -9.189450672570448E-7
0.020200000000000006      -1.0128762839459322E-6
0.020400000000000005      -1.1068075006348195E-6
0.020600000000000004      -1.2007387173237071E-6
0.020800000000000016      -1.2946699340125944E-6
0.021000000000000008      -1.3886011507014818E-6
0.021200000000000014      -1.4654423156524323E-6
0.0214                    -1.5422834806033827E-6
0.021600000000000005      -1.6191246455543333E-6
0.02180000000000001       -1.6959658105052837E-6
0.02200000000000001       -1.7728069754562342E-6
0.022200000000000015      -1.8318487514289643E-6
0.022400000000000007      -1.8908905274016944E-6
0.022600000000000006      -1.9499323033744243E-6
0.022800000000000018      -2.0089740793471546E-6
0.02300000000000001       -2.0680158553198845E-6
0.023200000000000023      -2.1091349456528954E-6
0.0234                    -2.150254035985906E-6
0.0236                    -2.1913731263189164E-6
0.02380000000000002       -2.2324922166519273E-6
0.02400000000000001       -2.273611306984938E-6
0.024200000000000017      -2.297221108779141E-6
0.0244                    -2.3208309105733434E-6
0.024600000000000007      -2.3444407123675465E-6
0.02480000000000002       -2.3680505141617495E-6
0.025000000000000012      -2.391660315955952E-6
0.02520000000000001       -2.3986502548050953E-6
0.025400000000000002      -2.4056401936542384E-6
0.0256                    -2.4126301325033815E-6
0.02580000000000002       -2.4196200713525247E-6
0.026000000000000013      -2.426610010201668E-6
0.026200000000000025      -2.418277008906594E-6
0.02640000000000001       -2.40994400761152E-6
0.02660000000000001       -2.401611006316446E-6
0.02680000000000002       -2.393278005021372E-6
0.027000000000000014      -2.3849450037262983E-6
0.02720000000000002       -2.362919429193629E-6
0.02740000000000001       -2.3408938546609596E-6
0.02760000000000001       -2.31886828012829E-6
0.027800000000000023      -2.2968427055956204E-6
0.02800000000000002       -2.2748171310629513E-6
0.02820000000000002       -2.2409858106545127E-6
0.028400000000000005      -2.207154490246074E-6
0.02860000000000001       -2.1733231698376356E-6
0.028800000000000023      -2.139491849429197E-6
0.029000000000000015      -2.1056605290207585E-6
0.029200000000000014      -2.0620892331876834E-6
0.029400000000000006      -2.018517937354608E-6
0.029600000000000005      -1.9749466415215335E-6
0.029800000000000024      -1.9313753456884583E-6
0.030000000000000023      -1.8878040498553831E-6
0.030200000000000022      -1.8366616616089016E-6
0.030400000000000014      -1.7855192733624198E-6
0.030600000000000013      -1.734376885115938E-6
0.030800000000000025      -1.6832344968694565E-6
0.031000000000000017      -1.632092108622975E-6
0.031200000000000023      -1.5755784702392741E-6
0.03140000000000001       -1.5190648318555734E-6
0.03160000000000002       -1.4625511934718726E-6
0.03180000000000003       -1.4060375550881718E-6
0.03200000000000003       -1.349523916704471E-6
0.032200000000000034      -1.2898030754227793E-6
0.032400000000000026      -1.2300822341410875E-6
0.03260000000000003       -1.1703613928593958E-6
0.032800000000000044      -1.110640551577704E-6
0.033000000000000036      -1.0509197102960123E-6
0.033200000000000035      -9.900599911339492E-7
0.03340000000000003       -9.292002719718862E-7
0.033600000000000026      -8.683405528098232E-7
0.033800000000000045      -8.074808336477601E-7
0.034000000000000044      -7.466211144856971E-7
0.03420000000000006       -6.86543138197233E-7
0.03440000000000004       -6.264651619087688E-7
0.03460000000000004       -5.663871856203047E-7
0.034800000000000046      -5.063092093318405E-7
0.035000000000000045      -4.4623123304337636E-7
0.03520000000000006       -3.886646811352673E-7
0.03540000000000004       -3.3109812922715823E-7
0.03560000000000004       -2.735315773190492E-7
0.03580000000000006       -2.159650254109401E-7
0.03600000000000005       -1.5839847350283106E-7
0.036200000000000065      -1.04848089247178E-7
0.03640000000000004       -5.1297704991524915E-8
0.03660000000000005       2.252679264128137E-9
0.03680000000000006       5.580306351978122E-8
0.037000000000000054      1.0935344777543428E-7
0.03720000000000006       1.576324347199002E-7
0.03740000000000005       2.0591142166436613E-7
0.03760000000000006       2.5419040860883206E-7
0.03780000000000008       3.0246939555329797E-7
0.03800000000000007       3.507483824977639E-7
0.03820000000000008       3.9276550240915104E-7
0.038400000000000066      4.347826223205382E-7
0.03860000000000006       4.7679974223192535E-7
0.03880000000000008       5.188168621433125E-7
0.03900000000000007       5.608339820546996E-7
0.039200000000000075      5.958697935862826E-7
0.03940000000000006       6.309056051178657E-7
0.03960000000000006       6.659414166494487E-7
0.03980000000000008       7.009772281810318E-7
0.04000000000000008       7.360130397126147E-7
0.04020000000000009       7.636169975075628E-7
0.04040000000000007       7.912209553025108E-7
0.040600000000000074      8.188249130974588E-7
0.04080000000000009       8.464288708924068E-7
0.041000000000000085      8.740328286873548E-7
0.0412000000000001        8.940135184876164E-7
0.04140000000000008       9.139942082878778E-7
0.04160000000000008       9.339748980881393E-7
0.041800000000000094      9.539555878884008E-7
0.042000000000000086      9.739362776886622E-7
0.04220000000000009       9.863449412461794E-7
0.04240000000000008       9.987536048036963E-7
0.042600000000000075      1.0111622683612133E-6
0.042800000000000095      1.0235709319187304E-6
0.04300000000000009       1.0359795954762473E-6
0.043200000000000106      1.0410879829227728E-6
0.04340000000000007       1.046196370369298E-6
0.043600000000000076      1.0513047578158234E-6
0.04380000000000011       1.0564131452623489E-6
0.0440000000000001        1.0615215327088741E-6
0.04420000000000011       1.0597951965663558E-6
0.0444000000000001        1.0580688604238373E-6
0.044600000000000105      1.056342524281319E-6
0.044800000000000124      1.0546161881388004E-6
0.045000000000000116      1.052889851996282E-6
0.04520000000000012       1.0449580356436852E-6
0.0454000000000001        1.037026219291088E-6
0.045600000000000106      1.029094402938491E-6
0.045800000000000125      1.021162586585894E-6
0.04600000000000012       1.013230770233297E-6
0.04620000000000012       9.998540463146339E-7
0.046400000000000115      9.864773223959709E-7
0.04660000000000011       9.73100598477308E-7
0.046800000000000126      9.597238745586448E-7
0.04700000000000012       9.463471506399819E-7
0.04720000000000014       9.283839343967076E-7
0.0474000000000001        9.104207181534332E-7
0.04760000000000011       8.924575019101587E-7
0.04780000000000013       8.744942856668845E-7
0.04800000000000012       8.565310694236101E-7
0.048200000000000125      8.34904071775319E-7
0.0484000000000001        8.132770741270278E-7
0.04860000000000011       7.916500764787366E-7
0.04880000000000013       7.700230788304454E-7
0.049000000000000134      7.483960811821543E-7
0.04920000000000014       7.240596806427178E-7
0.04940000000000013       6.997232801032813E-7
0.04960000000000012       6.753868795638449E-7
0.04980000000000014       6.510504790244084E-7
0.050000000000000135      6.267140784849719E-7
0.050200000000000154      6.006234841703017E-7
0.050400000000000146      5.745328898556314E-7
0.05060000000000015       5.484422955409612E-7
0.050800000000000144      5.22351701226291E-7
0.05100000000000015       4.962611069116208E-7
0.051200000000000155      4.6934406170189444E-7
0.05140000000000013       4.424270164921681E-7
0.05160000000000014       4.1550997128244175E-7
0.05180000000000016       3.885929260727155E-7
0.05200000000000015       3.616758808629891E-7
0.052200000000000156      3.348075190508183E-7
0.052400000000000134      3.079391572386474E-7
0.05260000000000014       2.810707954264765E-7
0.05280000000000016       2.5420243361430564E-7
0.05300000000000015       2.273340718021348E-7
0.05320000000000016       2.013154040623522E-7
0.053400000000000135      1.7529673632256958E-7
0.05360000000000014       1.4927806858278697E-7
0.053800000000000174      1.2325940084300435E-7
0.054000000000000166      9.724073310322175E-8
0.05420000000000017       7.278108795040286E-8
0.054400000000000164      4.832144279758393E-8
0.054600000000000155      2.3861797644765037E-8
0.054800000000000175      -5.978475080538806E-10
0.05500000000000017       -2.5057492660872783E-8
0.055200000000000186      -4.7353883313400206E-8
0.05540000000000015       -6.965027396592763E-8
0.055600000000000156      -9.194666461845505E-8
0.055800000000000176      -1.1424305527098248E-7
0.05600000000000017       -1.3653944592350989E-7
0.05620000000000017       -1.561826650317614E-7
0.05640000000000018       -1.758258841400129E-7
0.05660000000000017       -1.9546910324826442E-7
0.05680000000000019       -2.1511232235651596E-7
0.05700000000000018       -2.3475554146476745E-7
0.05720000000000019       -2.51375082996483E-7
0.05740000000000018       -2.6799462452819847E-7
0.057600000000000186      -2.8461416605991395E-7
0.05780000000000019       -3.0123370759162944E-7
0.05800000000000018       -3.17853249123345E-7
0.05820000000000019       -3.3119917994123163E-7
0.05840000000000017       -3.445451107591183E-7
0.05860000000000017       -3.578910415770049E-7
0.05880000000000019       -3.712369723948916E-7
0.059000000000000184      -3.845829032127782E-7
0.05920000000000019       -3.94523377789648E-7
0.05940000000000017       -4.0446385236651773E-7
0.059600000000000174      -4.144043269433874E-7
0.05980000000000019       -4.243448015202572E-7
0.0600000000000002        -4.3428527609712696E-7
0.060200000000000205      -4.4080077408701927E-7
0.06040000000000018       -4.4731627207691153E-7
0.06060000000000019       -4.538317700668038E-7
0.06080000000000021       -4.6034726805669605E-7
0.0610000000000002        -4.6686276604658836E-7
0.061200000000000206      -4.700374882830005E-7
0.06140000000000021       -4.7321221051941263E-7
0.0616000000000002        -4.763869327558248E-7
0.06180000000000024       -4.795616549922369E-7
0.062000000000000215      -4.82736377228649E-7
0.06220000000000022       -4.827472833731047E-7
0.0624000000000002        -4.827581895175603E-7
0.06260000000000021       -4.82769095662016E-7
0.06280000000000023       -4.827800018064718E-7
0.06300000000000022       -4.827909079509274E-7
0.06320000000000024       -4.798949088193602E-7
0.0634000000000002        -4.76998909687793E-7
0.06360000000000021       -4.7410291055622585E-7
0.06380000000000023       -4.7120691142465866E-7
0.06400000000000022       -4.683109122930915E-7
0.06420000000000023       -4.628307423995754E-7
0.06440000000000022       -4.5735057250605926E-7
0.06460000000000023       -4.518704026125432E-7
0.06480000000000023       -4.4639023271902706E-7
0.06500000000000022       -4.4091006282551096E-7
0.06520000000000023       -4.332193549153644E-7
0.06540000000000022       -4.255286470052178E-7
0.06560000000000021       -4.1783793909507127E-7
0.06580000000000025       -4.1014723118492473E-7
0.06600000000000024       -4.0245652327477813E-7
0.06620000000000026       -3.929645879727237E-7
0.06640000000000024       -3.8347265267066927E-7
0.06660000000000024       -3.7398071736861484E-7
0.06680000000000026       -3.644887820665604E-7
0.06700000000000025       -3.54996846764506E-7
0.06720000000000027       -3.4413362865946997E-7
0.06740000000000024       -3.332704105544339E-7
0.06760000000000024       -3.224071924493979E-7
0.06780000000000025       -3.1154397434436184E-7
0.06800000000000024       -3.0068075623932583E-7
0.06820000000000026       -2.888823947316804E-7
0.06840000000000024       -2.770840332240348E-7
0.06860000000000024       -2.6528567171638937E-7
0.06880000000000028       -2.5348731020874387E-7
0.06900000000000026       -2.4168894870109837E-7
0.06920000000000026       -2.2938431988509263E-7
0.06940000000000024       -2.1707969106908687E-7
0.06960000000000025       -2.047750622530811E-7
0.06980000000000026       -1.9247043343707534E-7
0.07000000000000026       -1.801658046210696E-7
0.07020000000000028       -1.6776436159445808E-7
0.07040000000000024       -1.5536291856784653E-7
0.07060000000000025       -1.4296147554123498E-7
0.07080000000000028       -1.3056003251462343E-7
0.07100000000000027       -1.181585894880119E-7
0.07120000000000028       -1.0603975502413174E-7
0.07140000000000027       -9.392092056025157E-8
0.07160000000000027       -8.180208609637141E-8
0.07180000000000028       -6.968325163249124E-8
0.07200000000000027       -5.756441716861108E-8
0.07220000000000028       -4.6068716861132846E-8
0.07240000000000027       -3.45730165536546E-8
0.07260000000000026       -2.3077316246176365E-8
0.07280000000000028       -1.1581615938698122E-8
0.07300000000000027       -8.591563121988525E-11
0.07320000000000029       1.0492026468445168E-8
0.07340000000000026       2.106996856811022E-8
0.07360000000000026       3.1647910667775276E-8
0.07380000000000031       4.222585276744033E-8
0.07400000000000029       5.280379486710538E-8
0.0742000000000003        6.2220340509679E-8
0.07440000000000027       7.16368861522526E-8
0.07460000000000028       8.105343179482621E-8
0.07480000000000031       9.046997743739982E-8
0.0750000000000003        9.988652307997343E-8
0.07520000000000031       1.0795218735032435E-7
0.07540000000000027       1.1601785162067527E-7
0.07560000000000028       1.2408351589102617E-7
0.07580000000000028       1.321491801613771E-7
0.07600000000000029       1.40214844431728E-7
0.0762000000000003        1.4679560598006943E-7
0.07640000000000027       1.5337636752841083E-7
0.07660000000000028       1.5995712907675225E-7
0.07680000000000031       1.6653789062509364E-7
0.0770000000000003        1.7311865217343506E-7
0.07720000000000031       1.7813551544547267E-7
0.07740000000000029       1.8315237871751027E-7
0.0776000000000003        1.8816924198954785E-7
0.07780000000000031       1.9318610526158548E-7
0.0780000000000003        1.9820296853362306E-7
0.07820000000000032       2.0162993002382177E-7
0.0784000000000003        2.0505689151402047E-7
0.07860000000000031       2.0848385300421915E-7
0.07880000000000034       2.1191081449441785E-7
0.07900000000000032       2.1533777598461656E-7
0.07920000000000033       2.1719838142748312E-7
0.07940000000000032       2.1905898687034965E-7
0.07960000000000031       2.2091959231321619E-7
0.07980000000000034       2.2278019775608275E-7
0.08000000000000032       2.2464080319894928E-7
0.08020000000000034       2.2500350926731482E-7
0.08040000000000032       2.2536621533568032E-7
0.08060000000000031       2.2572892140404583E-7
0.08080000000000033       2.2609162747241135E-7
0.08100000000000032       2.2645433354077687E-7
0.08120000000000033       2.2542690590534002E-7
0.0814000000000003        2.2439947826990317E-7
0.08160000000000031       2.2337205063446632E-7
0.08180000000000033       2.2234462299902944E-7
0.08200000000000034       2.213171953635926E-7
0.08220000000000036       2.190403850075795E-7
0.08240000000000032       2.167635746515664E-7
0.08260000000000033       2.1448676429555327E-7
0.08280000000000035       2.1220995393954018E-7
0.08300000000000034       2.0993314358352708E-7
0.08320000000000036       2.0657388541329711E-7
0.08340000000000033       2.0321462724306712E-7
0.08360000000000033       1.998553690728371E-7
0.08380000000000037       1.9649611090260714E-7
0.08400000000000035       1.9313685273237715E-7
0.08420000000000037       1.8888122533595196E-7
0.08440000000000034       1.8462559793952674E-7
0.08460000000000034       1.8036997054310155E-7
0.08480000000000035       1.7611434314667634E-7
0.08500000000000035       1.7185871575025115E-7
0.08520000000000036       1.6690488935808616E-7
0.08540000000000034       1.6195106296592115E-7
0.08560000000000034       1.5699723657375619E-7
0.08580000000000036       1.5204341018159117E-7
0.08600000000000035       1.4708958378942618E-7
0.08620000000000036       1.4164096594869868E-7
0.08640000000000035       1.3619234810797118E-7
0.08660000000000034       1.3074373026724368E-7
0.08680000000000038       1.2529511242651616E-7
0.08700000000000037       1.1984649458578866E-7
0.08720000000000037       1.1410526073547543E-7
0.08740000000000035       1.083640268851622E-7
0.08760000000000034       1.0262279303484897E-7
0.08780000000000036       9.688155918453573E-8
0.08800000000000036       9.114032533422251E-8
0.08820000000000036       8.530149539185966E-8
0.08840000000000034       7.94626654494968E-8
0.08860000000000035       7.362383550713395E-8
0.0888000000000004        6.778500556477109E-8
0.08900000000000038       6.194617562240824E-8
0.08920000000000039       5.6192368923272155E-8
0.08940000000000037       5.043856222413606E-8
0.08960000000000037       4.468475552499997E-8
0.08980000000000038       3.8930948825863876E-8
0.09000000000000039       3.317714212672779E-8
0.0902000000000004        2.767411264704547E-8
0.09040000000000037       2.2171083167363146E-8
0.09060000000000036       1.666805368768083E-8
0.0908000000000004        1.1165024207998506E-8
0.09100000000000039       5.661994728316187E-9
0.0912000000000004        5.550174968516205E-10
0.09140000000000037       -4.551959734612947E-9
0.09160000000000038       -9.658936966077514E-9
0.0918000000000004        -1.4765914197542081E-8
0.09200000000000039       -1.9872891429006647E-8
0.09220000000000039       -2.4461742512741228E-8
0.09240000000000037       -2.9050593596475806E-8
0.09260000000000038       -3.363944468021039E-8
0.0928000000000004        -3.8228295763944966E-8
0.09300000000000039       -4.2817146847679543E-8
0.0932000000000004        -4.679081904023818E-8
0.09340000000000037       -5.0764491232796806E-8
0.09360000000000038       -5.473816342535545E-8
0.09380000000000041       -5.8711835617914076E-8
0.0940000000000004        -6.268550781047271E-8
0.09420000000000041       -6.59729041307565E-8
0.09440000000000041       -6.926030045104028E-8
0.0946000000000004        -7.254769677132407E-8
0.09480000000000044       -7.583509309160787E-8
0.09500000000000042       -7.912248941189165E-8
0.09520000000000042       -8.167855940385197E-8
0.09540000000000039       -8.423462939581229E-8
0.09560000000000039       -8.679069938777262E-8
0.09580000000000044       -8.934676937973294E-8
0.09600000000000043       -9.190283937169326E-8
0.09620000000000042       -9.37078892781102E-8
0.0964000000000004        -9.551293918452711E-8
0.09660000000000042       -9.731798909094402E-8
0.09680000000000046       -9.912303899736095E-8
0.09700000000000043       -1.0092808890377787E-7
0.09720000000000045       -1.0198639262742973E-7
0.09740000000000043       -1.030446963510816E-7
0.09760000000000042       -1.0410300007473345E-7
0.09780000000000047       -1.051613037983853E-7
0.09800000000000046       -1.0621960752203716E-7
0.0982000000000005        -1.065574140599208E-7
0.09840000000000046       -1.0689522059780443E-7
0.09860000000000047       -1.0723302713568806E-7
0.09880000000000048       -1.0757083367357168E-7
0.09900000000000048       -1.0790864021145532E-7
0.09920000000000048       -1.0757168362031222E-7
0.09940000000000047       -1.0723472702916911E-7
0.09960000000000047       -1.0689777043802601E-7
0.0998000000000005        -1.0656081384688291E-7
0.10000000000000049       -1.062238572557398E-7
0.10020000000000051       -1.0527448164392505E-7
0.1004000000000005        -1.043251060321103E-7
0.1006000000000005        -1.0337573042029554E-7
0.1008000000000005        -1.0242635480848079E-7
0.1010000000000005        -1.0147697919666605E-7
0.10120000000000053       -9.999099385479807E-8
0.10140000000000048       -9.850500851293006E-8
0.10160000000000048       -9.701902317106208E-8
0.10180000000000052       -9.553303782919409E-8
0.1020000000000005        -9.40470524873261E-8
0.10220000000000053       -9.21104312879864E-8
0.10240000000000049       -9.017381008864669E-8
0.10260000000000051       -8.823718888930698E-8
0.10280000000000056       -8.630056768996727E-8
0.10300000000000054       -8.436394649062757E-8
0.10320000000000054       -8.206948141437981E-8
0.10340000000000052       -7.977501633813205E-8
0.10360000000000053       -7.748055126188429E-8
0.10380000000000056       -7.518608618563652E-8
0.10400000000000055       -7.289162110938876E-8
0.10420000000000057       -7.033563257190778E-8
0.10440000000000055       -6.777964403442679E-8
0.10460000000000055       -6.522365549694582E-8
0.10480000000000059       -6.266766695946483E-8
0.10500000000000057       -6.011167842198385E-8
0.10520000000000057       -5.739087542288785E-8
0.10540000000000055       -5.4670072423791834E-8
0.10560000000000055       -5.1949269424695835E-8
0.10580000000000059       -4.922846642559983E-8
0.10600000000000057       -4.6507663426503824E-8
0.10620000000000057       -4.371623489096488E-8
0.10640000000000055       -4.092480635542593E-8
0.10660000000000056       -3.813337781988698E-8
0.10680000000000059       -3.5341949284348034E-8
0.1070000000000006        -3.255052074880909E-8
0.10720000000000063       -2.9777526286510236E-8
0.10740000000000058       -2.700453182421138E-8
0.10760000000000061       -2.4231537361912525E-8
0.10780000000000065       -2.145854289961367E-8
0.10800000000000062       -1.8685548437314813E-8
0.10820000000000063       -1.6012662603721758E-8
0.10840000000000061       -1.3339776770128697E-8
0.10860000000000061       -1.0666890936535642E-8
0.10880000000000065       -7.994005102942583E-9
0.10900000000000062       -5.321119269349526E-9
0.10920000000000063       -2.820768775509924E-9
0.10940000000000061       -3.2041828167032235E-10
0.10960000000000061       2.1799322121692787E-9
0.10980000000000065       4.680282706008881E-9
0.11000000000000065       7.180633199848482E-9
0.11020000000000069       9.446714550004309E-9
0.11040000000000064       1.1712795900160137E-8
0.11060000000000064       1.3978877250315965E-8
0.11080000000000068       1.624495860047179E-8
0.11100000000000065       1.851103995062762E-8
0.11120000000000066       2.0492828077452665E-8
0.11140000000000064       2.247461620427771E-8
0.11160000000000062       2.4456404331102754E-8
0.11180000000000065       2.64381924579278E-8
0.11200000000000065       2.8419980584752844E-8
0.11220000000000066       3.007975265182261E-8
0.1124000000000007        3.173952471889238E-8
0.11260000000000067       3.3399296785962145E-8
0.1128000000000007        3.505906885303191E-8
0.11300000000000068       3.671884092010168E-8
0.11320000000000069       3.803135683638916E-8
0.11340000000000064       3.934387275267663E-8
0.11360000000000067       4.065638866896411E-8
0.1138000000000007        4.1968904585251584E-8
0.11400000000000071       4.3281420501539064E-8
0.11420000000000075       4.423372061500816E-8
0.1144000000000007        4.518602072847725E-8
0.1146000000000007        4.6138320841946344E-8
0.11480000000000071       4.709062095541544E-8
0.11500000000000071       4.804292106888453E-8
0.11520000000000075       4.863377556578519E-8
0.11540000000000072       4.922463006268584E-8
0.11560000000000073       4.9815484559586495E-8
0.11580000000000076       5.040633905648715E-8
0.11600000000000074       5.09971935533878E-8
0.11620000000000075       5.123624661401972E-8
0.11640000000000073       5.1475299674651626E-8
0.11660000000000073       5.171435273528354E-8
0.11680000000000076       5.195340579591545E-8
0.11700000000000074       5.2192458856547366E-8
0.11720000000000078       5.2099116300192155E-8
0.11740000000000073       5.2005773743836944E-8
0.11760000000000073       5.191243118748173E-8
0.11780000000000077       5.1819088631126516E-8
0.11800000000000074       5.1725746074771305E-8
0.11820000000000078       5.132785903008325E-8
0.11840000000000073       5.092997198539518E-8
0.11860000000000076       5.053208494070712E-8
0.1188000000000008        5.013419789601906E-8
0.1190000000000008        4.973631085133099E-8
0.11920000000000083       4.906870994752356E-8
0.11940000000000078       4.8401109043716114E-8
0.11960000000000079       4.773350813990868E-8
0.11980000000000082       4.7065907236101235E-8
0.1200000000000008        4.63983063322938E-8
0.1202000000000008        4.550124110641249E-8
0.12040000000000076       4.460417588053117E-8
0.12060000000000079       4.370711065464986E-8
0.12080000000000082       4.281004542876854E-8
0.1210000000000008        4.191298020288723E-8
0.12120000000000083       4.083051699038739E-8
0.12140000000000079       3.974805377788755E-8
0.12160000000000079       3.866559056538772E-8
0.12180000000000082       3.758312735288788E-8
0.12200000000000083       3.6500664140388044E-8
0.12220000000000086       3.527909282895474E-8
0.12240000000000081       3.4057521517521437E-8
0.12260000000000082       3.283595020608813E-8
0.12280000000000085       3.161437889465483E-8
0.12300000000000083       3.0392807583221526E-8
0.12320000000000086       2.9079103462274082E-8
0.12340000000000084       2.7765399341326636E-8
0.12360000000000082       2.6451695220379192E-8
0.12380000000000088       2.513799109943175E-8
0.12400000000000086       2.3824286978484302E-8
0.12420000000000087       2.24646687297417E-8
0.12440000000000087       2.1105050480999096E-8
0.12460000000000085       1.974543223225649E-8
0.12480000000000088       1.8385813983513887E-8
0.1250000000000009        1.7026195734771286E-8
0.1252000000000009        1.5664814616968477E-8
0.12540000000000084       1.4303433499165664E-8
0.12560000000000085       1.2942052381362856E-8
0.12580000000000088       1.1580671263560044E-8
0.1260000000000009        1.0219290145757235E-8
0.1262000000000009        8.89707886882768E-9
0.12640000000000087       7.574867591898122E-9
0.12660000000000088       6.252656314968567E-9
0.1268000000000009        4.930445038039011E-9
0.1270000000000009        3.608233761109456E-9
0.1272000000000009        2.3619366597246876E-9
0.1274000000000009        1.1156395583399188E-9
0.1276000000000009        -1.3065754304484932E-10
0.12780000000000094       -1.3769546444296184E-9
0.12800000000000092       -2.6232517458143864E-9
0.12820000000000092       -3.761852613684656E-9
0.1284000000000009        -4.900453481554925E-9
0.12860000000000094       -6.039054349425195E-9
0.12880000000000094       -7.177655217295465E-9
0.12900000000000095       -8.316256085165734E-9
0.12920000000000095       -9.320911158192963E-9
0.12940000000000093       -1.032556623122019E-8
0.1296000000000009        -1.133022130424742E-8
0.12980000000000097       -1.2334876377274648E-8
0.13000000000000095       -1.3339531450301876E-8
0.13020000000000098       -1.4189889006296922E-8
0.13040000000000096       -1.5040246562291966E-8
0.13060000000000094       -1.589060411828701E-8
0.130800000000001         -1.6740961674282055E-8
0.13100000000000098       -1.7591319230277098E-8
0.13120000000000098       -1.827309073799154E-8
0.13140000000000096       -1.895486224570598E-8
0.13160000000000097       -1.9636633753420416E-8
0.131800000000001         -2.0318405261134858E-8
0.13200000000000098       -2.1000176768849298E-8
0.13220000000000098       -2.1505112599017534E-8
0.13240000000000093       -2.2010048429185766E-8
0.13260000000000097       -2.2514984259354002E-8
0.132800000000001         -2.3019920089522235E-8
0.13300000000000098       -2.352485591969047E-8
0.133200000000001         -2.385054649685306E-8
0.133400000000001         -2.4176237074015645E-8
0.133600000000001         -2.4501927651178234E-8
0.13380000000000106       -2.482761822834082E-8
0.13400000000000103       -2.5153308805503404E-8
0.13420000000000107       -2.5302830200740744E-8
0.13440000000000102       -2.5452351595978084E-8
0.13460000000000102       -2.560187299121542E-8
0.13480000000000106       -2.575139438645276E-8
0.13500000000000104       -2.59009157816901E-8
0.13520000000000107       -2.5882341801154985E-8
0.13540000000000102       -2.586376782061987E-8
0.135600000000001         -2.5845193840084755E-8
0.13580000000000106       -2.582661985954964E-8
0.13600000000000104       -2.5808045879014525E-8
0.13620000000000104       -2.5633850872977065E-8
0.13640000000000102       -2.54596558669396E-8
0.136600000000001         -2.528546086090214E-8
0.13680000000000106       -2.5111265854864678E-8
0.13700000000000104       -2.4937070848827217E-8
0.13720000000000107       -2.4623448757737366E-8
0.13740000000000102       -2.4309826666647515E-8
0.13760000000000103       -2.399620457555766E-8
0.13780000000000112       -2.3682582484467813E-8
0.1380000000000011        -2.336896039337796E-8
0.1382000000000011        -2.293508599367967E-8
0.13840000000000108       -2.2501211593981373E-8
0.13860000000000108       -2.2067337194283083E-8
0.13880000000000112       -2.1633462794584787E-8
0.1390000000000011        -2.1199588394886498E-8
0.1392000000000011        -2.066684636296344E-8
0.13940000000000105       -2.013410433104038E-8
0.13960000000000108       -1.9601362299117325E-8
0.13980000000000112       -1.9068620267194265E-8
0.1400000000000011        -1.853587823527121E-8
0.1402000000000011        -1.792708458704685E-8
0.14040000000000108       -1.7318290938822486E-8
0.14060000000000109       -1.670949729059813E-8
0.14080000000000112       -1.6100703642373767E-8
0.14100000000000112       -1.5491909994149406E-8
0.14120000000000113       -1.4830548769864555E-8
0.1414000000000011        -1.4169187545579703E-8
0.14160000000000109       -1.3507826321294852E-8
0.14180000000000115       -1.284646509701E-8
0.14200000000000113       -1.2185103872725148E-8
0.1422000000000012        -1.1494599722014558E-8
0.14240000000000114       -1.0804095571303966E-8
0.14260000000000111       -1.0113591420593377E-8
0.14280000000000118       -9.423087269882785E-9
0.14300000000000115       -8.732583119172194E-9
0.14320000000000116       -8.035627808896622E-9
0.14340000000000114       -7.338672498621048E-9
0.14360000000000114       -6.641717188345475E-9
0.14380000000000118       -5.944761878069902E-9
0.14400000000000118       -5.247806567794329E-9
0.1442000000000012        -4.565754495800598E-9
0.14440000000000114       -3.8837024238068665E-9
0.14460000000000114       -3.2016503518131358E-9
0.1448000000000012        -2.5195982798194046E-9
0.14500000000000118       -1.8375462078256737E-9
0.14520000000000122       -1.1898908714130425E-9
0.14540000000000117       -5.422355350004114E-10
0.14560000000000117       1.0541980141221954E-10
0.1458000000000012        7.53075137824851E-10
0.14600000000000118       1.4007304742374819E-9
0.14620000000000122       1.9967903279426563E-9
0.1464000000000012        2.592850181647831E-9
0.1466000000000012        3.1889100353530053E-9
0.14680000000000124       3.78496988905818E-9
0.1470000000000012        4.381029742763354E-9
0.14720000000000122       4.910928764617044E-9
0.14740000000000117       5.4408277864707326E-9
0.14760000000000117       5.970726808324422E-9
0.14780000000000124       6.500625830178112E-9
0.14800000000000124       7.0305248520318006E-9
0.14820000000000125       7.482572117683367E-9
0.14840000000000123       7.934619383334932E-9
0.1486000000000012        8.386666648986498E-9
0.14880000000000126       8.838713914638063E-9
0.14900000000000124       9.29076118028963E-9
0.1492000000000013        9.656284089724139E-9
0.14940000000000123       1.0021806999158647E-8
0.14960000000000123       1.0387329908593156E-8
0.1498000000000013        1.0752852818027665E-8
0.15000000000000127       1.1118375727462173E-8
0.1502000000000013        1.1391769927646009E-8
0.15040000000000125       1.1665164127829845E-8
0.15060000000000126       1.1938558328013681E-8
0.1508000000000013        1.2211952528197517E-8
0.15100000000000127       1.2485346728381353E-8
0.15120000000000128       1.2664037554934226E-8
0.15140000000000123       1.2842728381487098E-8
0.15160000000000126       1.3021419208039968E-8
0.1518000000000013        1.3200110034592842E-8
0.15200000000000127       1.3378800861145713E-8
0.1522000000000013        1.3463123788878028E-8
0.15240000000000128       1.3547446716610342E-8
0.15260000000000132       1.3631769644342655E-8
0.15280000000000135       1.3716092572074968E-8
0.15300000000000133       1.3800415499807283E-8
0.15320000000000134       1.379342470788637E-8
0.1534000000000013        1.3786433915965454E-8
0.1536000000000013        1.377944312404454E-8
0.15380000000000135       1.3772452332123625E-8
0.15400000000000133       1.376546154020271E-8
0.15420000000000134       1.3672676923100599E-8
0.15440000000000131       1.3579892305998486E-8
0.1546000000000013        1.3487107688896374E-8
0.15480000000000135       1.3394323071794262E-8
0.15500000000000133       1.330153845469215E-8
0.15520000000000134       1.313064224533577E-8
0.15540000000000131       1.2959746035979387E-8
0.15560000000000132       1.2788849826623005E-8
0.15580000000000135       1.2617953617266622E-8
0.15600000000000133       1.2447057407910241E-8
0.15620000000000137       1.2207552036712891E-8
0.1564000000000013        1.1968046665515538E-8
0.1566000000000013        1.1728541294318189E-8
0.15680000000000135       1.1489035923120837E-8
0.15700000000000136       1.1249530551923486E-8
0.15720000000000142       1.095236946714204E-8
0.15740000000000137       1.0655208382360592E-8
0.15760000000000138       1.0358047297579144E-8
0.1578000000000014        1.0060886212797698E-8
0.1580000000000014        9.76372512801625E-9
0.15820000000000142       9.420928080102836E-9
0.15840000000000137       9.078131032189422E-9
0.15860000000000138       8.735333984276007E-9
0.1588000000000014        8.392536936362592E-9
0.1590000000000014        8.049739888449178E-9
0.15920000000000142       7.674003671682305E-9
0.15940000000000135       7.2982674549154326E-9
0.15960000000000138       6.9225312381485595E-9
0.15980000000000144       6.546795021381687E-9
0.16000000000000142       6.171058804614814E-9
0.16020000000000142       5.775373696030377E-9
0.1604000000000014        5.37968858744594E-9
0.16060000000000138       4.9840034788615025E-9
0.16080000000000144       4.5883183702770655E-9
0.16100000000000142       4.1926332616926285E-9
0.16120000000000145       3.789914445943852E-9
0.1614000000000014        3.3871956301950734E-9
0.16160000000000138       2.984476814446296E-9
0.16180000000000147       2.5817579986975183E-9
0.16200000000000142       2.179039182948741E-9
0.16220000000000145       1.7817813494756523E-9
0.1624000000000014        1.3845235160025633E-9
0.16260000000000144       9.872656825294747E-10
0.16280000000000147       5.900078490563858E-10
0.16300000000000148       1.9275001558329713E-10
0.16320000000000148       -1.8728789422515297E-10
0.16340000000000143       -5.673258040336031E-10
0.16360000000000144       -9.47363713842053E-10
0.16380000000000147       -1.3274016236505033E-9
0.16400000000000148       -1.7074395334589534E-9
0.1642000000000015        -2.0595137157002164E-9
0.16440000000000146       -2.411587897941479E-9
0.16460000000000147       -2.7636620801827417E-9
0.1648000000000015        -3.1157362624240045E-9
0.16500000000000148       -3.4678104446652674E-9
0.1652000000000015        -3.7824313370084185E-9
0.1654000000000015        -4.09705222935157E-9
0.1656000000000015        -4.411673121694721E-9
0.16580000000000153       -4.726294014037872E-9
0.1660000000000015        -5.040914906381023E-9
0.16620000000000154       -5.31004284051098E-9
0.1664000000000015        -5.579170774640937E-9
0.16660000000000147       -5.8482987087708936E-9
0.16680000000000153       -6.11742664290085E-9
0.1670000000000015        -6.386554577030807E-9
0.16720000000000151       -6.603750084825084E-9
0.1674000000000015        -6.820945592619361E-9
0.1676000000000015        -7.0381411004136385E-9
0.16780000000000153       -7.2553366082079156E-9
0.16800000000000154       -7.472532116002193E-9
0.1682000000000016        -7.633059861013969E-9
0.16840000000000152       -7.793587606025745E-9
0.16860000000000153       -7.954115351037524E-9
0.1688000000000016        -8.1146430960493E-9
0.16900000000000157       -8.275170841061076E-9
0.1692000000000016        -8.376058099957842E-9
0.16940000000000155       -8.476945358854607E-9
0.16960000000000156       -8.57783261775137E-9
0.1698000000000016        -8.678719876648135E-9
0.17000000000000157       -8.779607135544901E-9
0.17020000000000157       -8.819656428708382E-9
0.17040000000000152       -8.859705721871863E-9
0.17060000000000156       -8.899755015035344E-9
0.1708000000000016        -8.939804308198825E-9
0.17100000000000157       -8.979853601362307E-9
0.17120000000000157       -8.95961519818985E-9
0.17140000000000155       -8.939376795017392E-9
0.17160000000000156       -8.919138391844934E-9
0.1718000000000016        -8.898899988672477E-9
0.1720000000000016        -8.87866158550002E-9
0.17220000000000166       -8.80036224960989E-9
0.1724000000000016        -8.722062913719759E-9
0.17260000000000159       -8.643763577829628E-9
0.17280000000000165       -8.565464241939498E-9
0.17300000000000162       -8.487164906049367E-9
0.17320000000000166       -8.354600801726226E-9
0.1734000000000016        -8.222036697403084E-9
0.1736000000000016        -8.089472593079943E-9
0.17380000000000165       -7.956908488756803E-9
0.17400000000000163       -7.82434438443366E-9
0.17420000000000166       -7.642751232886E-9
0.17440000000000158       -7.46115808133834E-9
0.17460000000000162       -7.27956492979068E-9
0.17480000000000165       -7.0979717782430185E-9
0.17500000000000165       -6.916378626695359E-9
0.17520000000000166       -6.692255815852831E-9
0.1754000000000016        -6.468133005010303E-9
0.17560000000000162       -6.244010194167775E-9
0.17580000000000168       -6.019887383325247E-9
0.17600000000000166       -5.795764572482719E-9
0.1762000000000017        -5.536593681538732E-9
0.17640000000000164       -5.2774227905947445E-9
0.17660000000000164       -5.018251899650758E-9
0.17680000000000168       -4.75908100870677E-9
0.17700000000000166       -4.499910117762783E-9
0.1772000000000017        -4.21428829745524E-9
0.17740000000000164       -3.928666477147697E-9
0.17760000000000167       -3.643044656840154E-9
0.1778000000000017        -3.357422836532611E-9
0.1780000000000017        -3.071801016225068E-9
0.17820000000000175       -2.768577309802926E-9
0.17840000000000167       -2.465353603380784E-9
0.17860000000000167       -2.1621298969586416E-9
0.17880000000000174       -1.8589061905364996E-9
0.1790000000000017        -1.5556824841143575E-9
0.1792000000000014        -1.2445820843241142E-9
0.179400000000001         -9.334816845338704E-10
0.17960000000000065       -6.22381284743627E-10
0.17980000000000038       -3.1128088495338335E-10
0.18000000000000002       -1.8048516313992708E-13
